…
# Record end time and compute duration
b <- Sys.time()
processing_time <- difftime(b, a)

# Display the processing time and transformed dataset
processing_time
```

    Time difference of 1.23593 mins

``` r
y
```

    # A tibble: 600,000 × 3
       time       wavelength_nm reflectance
       <chr>              <dbl>       <dbl>
     1 2021-05-01           443        1855
     2 2021-05-01           490        2255
     3 2021-05-01           560        2884
     4 2021-05-01           665        3711
     5 2021-05-01           705        3990
     6 2021-05-01           740        4009
     7 2021-05-01           783        4078
     8 2021-05-01           842        4219
     9 2021-05-01           865        4060
    10 2021-05-01           940        4120
    # ℹ 599,990 more rows
…
